<svg width="20" height="22" viewBox="0 0 20 22" fill="none" xmlns="http://www.w3.org/2000/svg">
<path fill-rule="evenodd" clip-rule="evenodd" d="M14.7868 0.820003C14.7372 0.451089 14.4234 0.166748 14.0437 0.166748C13.6295 0.166748 13.2937 0.505137 13.2937 0.922562V1.75819H6.71548V0.922562L6.70864 0.820003C6.65897 0.451089 6.34518 0.166748 5.96549 0.166748C5.55127 0.166748 5.21549 0.505137 5.21549 0.922562V1.77695C2.14209 1.98863 0.25 3.98 0.25 7.19302V16.3128C0.25 19.7612 2.37153 21.8334 5.77094 21.8334H14.2289C17.6324 21.8334 19.7499 19.7959 19.7499 16.3891V7.19302C19.7597 3.97885 17.8737 1.98803 14.7937 1.77686V0.922562L14.7868 0.820003ZM13.2937 3.26981V4.23885L13.3005 4.34141C13.3502 4.71033 13.664 4.99467 14.0437 4.99467C14.4579 4.99467 14.7937 4.65628 14.7937 4.23885V3.29215C17.0346 3.4786 18.2571 4.82805 18.2499 7.1907V7.6284H1.74999V7.19302C1.74999 4.83186 2.97919 3.47956 5.21549 3.2923V4.23885L5.22233 4.34141C5.272 4.71033 5.58579 4.99467 5.96549 4.99467C6.3797 4.99467 6.71548 4.65628 6.71548 4.23885V3.26981H13.2937ZM1.74999 9.14003V16.3128C1.74999 18.9156 3.18964 20.3218 5.77094 20.3218H14.2289C16.8191 20.3218 18.2499 18.9451 18.2499 16.3891L18.2499 9.14003H1.74999ZM15.2013 12.3199C15.2013 11.9025 14.8655 11.5641 14.4513 11.5641L14.3402 11.571C13.9742 11.6211 13.692 11.9373 13.692 12.3199C13.692 12.7374 14.0278 13.0757 14.4513 13.0757L14.5531 13.0688C14.9191 13.0188 15.2013 12.7026 15.2013 12.3199ZM10.0138 11.5641C10.4281 11.5641 10.7638 11.9025 10.7638 12.3199C10.7638 12.7026 10.4817 13.0188 10.1156 13.0688L10.0138 13.0757C9.59036 13.0757 9.25458 12.7374 9.25458 12.3199C9.25458 11.9373 9.53673 11.6211 9.90281 11.571L10.0138 11.5641ZM6.31713 12.3199C6.31713 11.9025 5.98135 11.5641 5.56713 11.5641L5.4561 11.571C5.09003 11.6211 4.80787 11.9373 4.80787 12.3199C4.80787 12.7374 5.14366 13.0757 5.55787 13.0757L5.6689 13.0688C6.03498 13.0188 6.31713 12.7026 6.31713 12.3199ZM14.4513 15.4808C14.8655 15.4808 15.2013 15.8192 15.2013 16.2366C15.2013 16.6192 14.9191 16.9354 14.5531 16.9855L14.4513 16.9924C14.0278 16.9924 13.692 16.654 13.692 16.2366C13.692 15.8539 13.9742 15.5377 14.3402 15.4877L14.4513 15.4808ZM10.7638 16.2366C10.7638 15.8192 10.4281 15.4808 10.0138 15.4808L9.90281 15.4877C9.53673 15.5377 9.25458 15.8539 9.25458 16.2366C9.25458 16.654 9.59036 16.9924 10.0138 16.9924L10.1156 16.9855C10.4817 16.9354 10.7638 16.6192 10.7638 16.2366ZM5.56713 15.4808C5.98135 15.4808 6.31713 15.8192 6.31713 16.2366C6.31713 16.6192 6.03498 16.9354 5.6689 16.9855L5.55787 16.9924C5.14366 16.9924 4.80787 16.654 4.80787 16.2366C4.80787 15.8539 5.09003 15.5377 5.4561 15.4877L5.56713 15.4808Z" fill="currentColor"/>
</svg>
