<svg width="22" height="29" viewBox="0 0 22 29" fill="none" xmlns="http://www.w3.org/2000/svg">
<path d="M7.24123 15.2015C7.32096 16.1611 7.40639 17.1266 7.48612 18.0861C6.95078 18.2224 6.41544 18.3645 5.88009 18.5008C6.13637 19.0339 6.39265 19.5729 6.64894 20.106C5.57825 20.8701 4.50187 21.6401 3.42548 22.428C2.5883 23.0321 1.75681 23.6422 0.936707 24.2464C1.42079 24.8447 2.14977 25.6384 3.1692 26.3966C3.34575 26.5269 3.98361 26.9889 4.94039 27.4806C5.47574 27.753 7.0419 28.5053 8.87574 28.8133C13.8134 29.6367 17.8911 26.752 18.2499 26.4914C19.5655 25.5318 20.4597 24.4833 21.0064 23.7548C19.9813 23.3994 18.9561 23.044 17.9253 22.6827C16.6097 22.2206 15.2999 21.7586 13.9957 21.2966C14.1779 20.9886 14.3659 20.6746 14.5481 20.3666C14.1551 20.2304 13.7679 20.0882 13.3749 19.952C13.6312 19.407 13.8875 18.8621 14.1437 18.3172C11.8486 17.2806 9.54776 16.244 7.24123 15.2015Z" fill="#323835"/>
<path d="M7.5202 14.4315C7.79926 16.0012 8.07263 17.5768 8.35169 19.1465C9.49072 20.3548 10.6354 21.5632 11.7745 22.7715C12.3098 21.1782 12.8452 19.5848 13.3805 17.9914C12.2073 17.7663 11.0341 17.5412 9.8666 17.3161C9.66158 16.0545 9.45655 14.7928 9.25153 13.5311C8.67062 13.8332 8.09541 14.1353 7.5202 14.4315Z" fill="white"/>
<path d="M15.8067 5.89587C16.2111 6.90284 16.6154 7.90981 17.0255 8.91678C17.6918 9.68681 18.3638 10.4568 19.0302 11.2269C18.5461 11.837 18.062 12.4471 17.5779 13.0572C17.7146 13.306 17.9253 13.7561 17.9766 14.3722C18.0335 15.0297 17.8911 15.545 17.7943 15.8175C18.1531 16.5223 18.5119 17.2272 18.8764 17.9321C18.0563 18.4652 17.2305 19.0042 16.4104 19.5373C14.1152 19.0042 11.8258 18.4652 9.53066 17.9321C9.50218 17.6655 9.29716 15.7997 9.0124 15.1185C8.99531 15.083 8.94406 14.9645 8.85293 14.8283C8.6593 14.5617 8.26634 14.1885 8.02145 14.3011C7.79364 14.4018 7.77655 14.8816 7.76516 15.1185C7.74808 15.5391 7.86198 15.6575 7.76516 15.8175C7.61139 16.0722 7.133 16.1018 6.79129 15.9596C6.32429 15.7701 6.17622 15.2844 6.14205 15.1896C5.99967 14.7276 6.14205 14.3366 6.18761 14.23C5.59531 13.6377 4.99732 13.0453 4.40503 12.4471C4.64423 11.1676 4.87773 9.89413 5.11692 8.61469C8.67639 7.70249 12.2415 6.79622 15.8067 5.89587Z" fill="#2F2F2F"/>
<path d="M15.67 7.00958C15.9263 7.80923 16.1769 8.61481 16.4332 9.41446C17.0198 10.0186 17.6064 10.6169 18.193 11.2211C17.5551 11.6061 16.9116 11.9911 16.2737 12.3761C16.342 12.7671 16.4104 13.1639 16.4844 13.5549C15.6928 13.8984 14.8955 14.242 14.1038 14.5915C13.4147 14.6744 12.7256 14.7514 12.0365 14.8343C11.6151 14.2894 11.1936 13.7444 10.7722 13.1935C10.4191 12.1214 10.0603 11.0434 9.7072 9.97125C10.009 9.42038 10.3109 8.86359 10.607 8.31272C12.2928 7.87439 13.9843 7.44199 15.67 7.00958Z" fill="white"/>
<path d="M14.0982 15.3318C15.1176 15.545 15.7839 15.397 16.2167 15.2133C16.4389 15.1186 16.7806 14.929 16.8945 15.0475C16.9913 15.1541 16.8774 15.468 16.7464 15.628C16.2338 16.2499 14.4911 15.5095 14.0982 15.3318Z" fill="white"/>
<path d="M8.682 11.4105C8.79021 11.2091 8.65922 10.8537 8.4485 10.6879C7.93594 10.2732 6.66023 10.7412 6.43812 11.529C6.347 11.8607 6.4552 12.1805 6.55202 12.4649C6.62606 12.684 6.79122 13.1342 7.22405 13.4244C7.4006 13.5429 7.62271 13.691 7.89607 13.6673C8.10679 13.6436 8.20361 13.537 8.35738 13.5962C8.50545 13.6555 8.50545 13.7917 8.65922 13.9575C8.85286 14.1649 9.22304 14.3366 9.39959 14.2004C9.55336 14.0819 9.56475 13.7088 9.42237 13.4541C9.16609 12.9861 8.51684 13.0868 8.43711 12.7196C8.39155 12.5123 8.5681 12.3286 8.4485 12.1569C8.38016 12.0562 8.27195 12.0325 8.23778 12.0265C8.02706 11.9732 7.78217 12.1154 7.70814 12.3049C7.59423 12.5774 7.8676 12.8617 7.78787 12.9328C7.71953 12.992 7.40629 12.8321 7.31517 12.5596C7.22974 12.3168 7.32656 12.0325 7.48602 11.8488C7.87329 11.4224 8.51115 11.7304 8.682 11.4105Z" fill="white"/>
<path d="M11.4613 10.0897C11.6606 9.77573 12.0479 9.25447 12.7086 8.91092C13.3065 8.59698 13.8761 8.62068 15.0208 8.66806C15.3967 8.68583 15.6472 8.71545 15.7612 8.91092C15.9377 9.21301 15.6416 9.6928 15.6017 9.75203C15.1916 9.62172 14.6221 9.48548 13.9387 9.48548C12.8111 9.48548 11.9454 9.84088 11.4613 10.0897Z" fill="#2F2F2F"/>
<path d="M13.2723 10.5931C13.3862 10.5339 13.5514 10.4569 13.7564 10.3858C14.2633 10.2081 14.7189 10.0423 15.0435 10.2614C15.2884 10.4273 15.4251 10.7708 15.3397 10.8834C15.2486 10.9959 14.941 10.7708 14.4114 10.6464C13.9671 10.5398 13.5685 10.5576 13.2723 10.5931Z" fill="#2F2F2F"/>
<path d="M6.9621 7.1931L6.85959 7.2168C6.609 7.28195 6.05657 7.42412 5.34468 7.63736C5.06562 7.72028 4.82642 7.79728 4.64987 7.85059V7.84467C4.66126 7.83875 4.67835 7.83282 4.68974 7.8269C4.63279 7.66105 4.6157 7.51889 4.60431 7.42411C4.58723 7.26418 4.61001 7.21087 4.6157 7.1931C4.66696 7.05687 4.80934 7.0154 4.87768 6.99171C5.32759 6.85547 5.94267 6.63039 6.47232 6.66C6.53497 6.66593 6.64317 6.67185 6.73999 6.75478C6.75708 6.76662 6.81403 6.81993 6.88237 6.96802C6.90515 7.02133 6.93363 7.09833 6.9621 7.1931Z" fill="#323835"/>
<path d="M9.8666 6.48236C8.99525 6.70152 8.31183 6.85553 7.21267 7.128C7.18989 7.03915 7.1785 6.96214 7.16711 6.90291C7.14433 6.71929 7.16141 6.66006 7.16711 6.64229C7.21836 6.48236 7.38352 6.42312 7.46325 6.39943C7.97582 6.21581 8.68201 5.92556 9.2857 5.93149C9.35973 5.93149 9.48503 5.93741 9.59893 6.02626C9.62171 6.04403 9.69005 6.09734 9.76978 6.25727C9.80396 6.31058 9.83813 6.38758 9.8666 6.48236Z" fill="#323835"/>
<path d="M12.6403 5.72411C11.4785 6.02621 11.4215 6.08544 10.0888 6.42899C10.0661 6.33422 10.049 6.25129 10.0433 6.19206C10.0148 5.99659 10.0319 5.93736 10.0376 5.91366C10.0888 5.74781 10.2483 5.6945 10.3223 5.66488C10.8178 5.48718 11.5012 5.19694 12.0935 5.21471C12.1676 5.21471 12.2872 5.22656 12.4011 5.32133C12.4239 5.3391 12.4865 5.39833 12.5719 5.57011C12.5947 5.61157 12.6175 5.65896 12.6403 5.72411Z" fill="#323835"/>
<path d="M15.3169 5.11411C14.6392 5.25035 13.8134 5.42805 12.8794 5.66498C12.8566 5.5939 12.8396 5.52875 12.8282 5.47544C12.7883 5.28589 12.7997 5.22073 12.8054 5.20296C12.8396 5.03711 12.9876 4.97195 13.0503 4.94234C13.5059 4.74094 14.1267 4.43293 14.6848 4.42108C14.7531 4.42108 14.867 4.42108 14.9809 4.51586C14.998 4.53363 15.0664 4.58694 15.1632 4.75279C15.2087 4.82979 15.2657 4.95418 15.3169 5.11411Z" fill="#323835"/>
<path d="M15.4707 2.60838C15.4992 2.88086 15.4536 3.11187 15.4081 3.25995C15.5334 3.85228 15.6587 4.43869 15.7783 5.03103C15.6701 5.0488 15.5562 5.07249 15.4366 5.09618C15.4138 4.97772 15.3739 4.84148 15.3056 4.69932C15.2486 4.58678 15.1689 4.42092 15.0208 4.3143C14.8784 4.21361 14.7417 4.22545 14.6563 4.2373C14.2577 4.27876 13.5799 4.38538 12.9478 4.74078C12.8851 4.77632 12.7655 4.8474 12.7143 5.00733C12.6687 5.13765 12.6858 5.26204 12.7029 5.38643C12.7086 5.41604 12.7143 5.45751 12.72 5.49897C12.6687 5.38643 12.6004 5.22057 12.458 5.11988C12.3156 5.01326 12.1675 5.01918 12.0764 5.0251C11.655 5.0488 10.926 5.1258 10.2255 5.45751C10.1515 5.49305 10.0262 5.5582 9.95783 5.71221C9.90088 5.8366 9.90657 5.96692 9.91227 6.09723C9.91227 6.12092 9.91796 6.15054 9.91796 6.18015C9.8724 6.07353 9.79836 5.92545 9.66168 5.8366C9.51361 5.7359 9.36553 5.74775 9.27441 5.75367C8.84158 5.78921 8.09551 5.87806 7.37223 6.20977C7.29819 6.24531 7.16721 6.31047 7.09317 6.45855C7.03052 6.58294 7.03622 6.70733 7.04191 6.8258C7.04191 6.9028 7.0533 7.02127 7.09317 7.16343L7.07609 7.16935C7.06469 7.09827 7.04761 7.02127 7.01344 6.93834C6.97357 6.84357 6.92232 6.69549 6.79133 6.60071C6.66603 6.51186 6.53505 6.51186 6.46101 6.51186C6.08513 6.52371 5.43588 6.56517 4.80372 6.8258C4.74108 6.84949 4.62148 6.9028 4.55314 7.03311C4.50757 7.12196 4.49618 7.21081 4.49618 7.29374C4.41645 6.99165 4.34242 6.68956 4.26838 6.38747C4.21143 6.269 4.12031 6.08538 4.0121 5.86622C3.90389 5.63521 3.80707 5.42789 3.78999 5.3805C3.59635 4.93033 3.70456 4.21361 3.82985 3.82859C4.01779 3.26587 4.45062 2.78016 7.58865 1.08016C7.993 0.860998 8.32332 0.683298 8.55682 0.564832C8.9327 0.576678 9.50791 0.594448 10.2084 0.588525C12.8225 0.576678 14.2577 0.321974 14.7816 1.0387C14.9639 1.28748 15.26 1.95682 15.317 2.09898C15.391 2.25298 15.4479 2.40107 15.4707 2.60838Z" fill="#323835"/>
<path d="M3.84574 5.84255C3.84005 5.8307 3.83435 5.81886 3.82866 5.80701C3.82296 5.78924 3.81726 5.77147 3.81157 5.7537C4.51777 5.57008 5.67388 5.26799 7.11475 4.91259C8.99984 4.44464 9.90537 4.23733 12.0467 3.71015C12.8441 3.51468 14.0571 3.21259 15.5493 2.8335C15.555 2.85127 15.555 2.86311 15.5606 2.88088C15.5663 2.89865 15.5663 2.91642 15.5663 2.93419C11.6595 3.90562 7.75261 4.87112 3.84574 5.84255Z" fill="white"/>
<path d="M4.10313 6.31639C4.09174 6.30455 4.08034 6.28678 4.06895 6.27493C4.86058 6.06762 5.99391 5.77145 7.36075 5.42789C9.12624 4.98364 10.009 4.7704 12.1788 4.23138C12.9477 4.04183 14.1209 3.74566 15.5731 3.37842C15.5674 3.39026 15.5561 3.40211 15.5504 3.41988C15.539 3.43765 15.5276 3.45542 15.5162 3.46727C11.7175 4.415 7.91318 5.36274 4.10313 6.31639Z" fill="white"/>
<path d="M4.21145 6.44681C4.20006 6.42904 4.18867 6.41719 4.17728 6.39942C4.9746 6.1921 6.07945 5.90186 7.40073 5.57015C9.16622 5.1259 10.049 4.91266 12.2017 4.37956C13.0446 4.16632 14.1723 3.88793 15.5049 3.54437C15.5106 3.56807 15.5106 3.58584 15.5163 3.60953C11.7518 4.55134 7.98163 5.49907 4.21145 6.44681Z" fill="white"/>
<path d="M15.4423 5.09039C15.4195 4.97192 15.3796 4.83568 15.3113 4.69352C15.2543 4.58098 15.1746 4.41513 15.0265 4.30851C14.8841 4.20781 14.7475 4.21966 14.662 4.2315C14.2634 4.27297 13.5856 4.37959 12.9535 4.73499C12.8908 4.77053 12.7712 4.84161 12.72 5.00154C12.6744 5.13185 12.6915 5.25624 12.7086 5.38063C12.7143 5.41025 12.72 5.45171 12.7257 5.49317C12.6744 5.38063 12.6061 5.21478 12.4637 5.11408C12.3213 5.00746 12.1732 5.01338 12.0821 5.01931C11.6607 5.043 10.9317 5.12 10.2312 5.45171C10.1572 5.48725 10.0319 5.55241 9.96353 5.70641C9.90658 5.8308 9.91228 5.96112 9.91797 6.09143C9.91797 6.11512 9.92367 6.14474 9.92367 6.17436C9.87811 6.06774 9.80407 5.91965 9.66739 5.8308C9.51931 5.73011 9.37124 5.74195 9.28012 5.74788C8.84729 5.78342 8.10122 5.87227 7.37794 6.20397C7.3039 6.23951 7.17291 6.30467 7.09888 6.45276C7.03623 6.57715 7.04193 6.70153 7.04762 6.82C7.04762 6.897 7.05901 7.01547 7.09888 7.15763L7.08179 7.16356C7.0704 7.09248 7.05332 7.01547 7.01915 6.93254C6.97928 6.83777 6.92802 6.68969 6.79704 6.59492C6.67174 6.50607 6.54075 6.50607 6.46672 6.50607C6.09084 6.51791 5.44159 6.55937 4.80943 6.82C4.74678 6.84369 4.62719 6.897 4.55884 7.02732C4.51328 7.11617 4.50189 7.20502 4.50189 7.28794C4.54745 7.47157 4.59871 7.66112 4.64427 7.84474C4.65566 7.83882 4.67275 7.83289 4.68414 7.82697C4.62719 7.66112 4.6101 7.51896 4.59871 7.42418C4.58162 7.26425 4.6044 7.21094 4.6101 7.19317C4.66136 7.05694 4.80373 7.01547 4.87208 6.99178C5.32199 6.85554 5.93707 6.63046 6.46672 6.66007C6.52936 6.666 6.63757 6.67192 6.73439 6.75484C6.75147 6.76669 6.80843 6.82 6.87677 6.96808C6.89955 7.02139 6.93372 7.0984 6.9565 7.19317L6.85399 7.21687C6.6034 7.28202 6.05097 7.42418 5.33908 7.63742C5.06002 7.72035 4.82082 7.79735 4.64427 7.85066C4.66705 7.94544 4.68983 8.03429 4.71261 8.12906C5.06002 8.01652 5.56688 7.85659 6.17626 7.67889C6.56353 7.56634 6.88246 7.47749 7.17861 7.40049C7.19569 7.39457 7.21278 7.38864 7.23556 7.38864C7.92467 7.20502 8.50558 7.07471 9.49653 6.82593C9.64461 6.79039 9.78129 6.75485 9.91228 6.71931L10.049 6.68377C10.0831 6.67784 10.1173 6.666 10.1458 6.66007C11.4215 6.32837 11.8372 6.18028 12.6972 5.96112C12.7428 5.94927 12.7826 5.93742 12.8282 5.92558L12.8453 5.91965C12.8738 5.91373 12.9079 5.90188 12.9421 5.89596C13.0845 5.86042 13.2439 5.82488 13.4205 5.78342C14.4228 5.55241 15.26 5.38655 15.8238 5.28586C15.8068 5.20293 15.7897 5.12 15.7726 5.03708C15.6758 5.043 15.5619 5.06669 15.4423 5.09039ZM7.21278 7.12802C7.19 7.03917 7.17861 6.96216 7.16722 6.90293C7.14444 6.7193 7.16152 6.66007 7.16722 6.6423C7.21848 6.48237 7.38363 6.42314 7.46337 6.39944C7.97593 6.21582 8.68213 5.92558 9.28581 5.9315C9.35985 5.9315 9.48514 5.93742 9.59904 6.02627C9.62183 6.04404 9.69017 6.09735 9.7699 6.25728C9.79837 6.31059 9.83255 6.3876 9.86102 6.48237C8.99536 6.70154 8.31764 6.85554 7.21278 7.12802ZM10.0888 6.42906C10.066 6.33429 10.049 6.25136 10.0433 6.19213C10.0148 5.99666 10.0319 5.93742 10.0376 5.91373C10.0888 5.74788 10.2483 5.69457 10.3223 5.66495C10.8178 5.48725 11.5012 5.19701 12.0935 5.21478C12.1676 5.21478 12.2872 5.22662 12.4011 5.3214C12.4238 5.33917 12.4865 5.3984 12.5719 5.57018C12.5947 5.61164 12.6175 5.66495 12.6403 5.72418C11.4784 6.02627 11.4215 6.08551 10.0888 6.42906ZM12.8794 5.66495C12.8567 5.59387 12.8396 5.52871 12.8282 5.4754C12.7883 5.28586 12.7997 5.2207 12.8054 5.20293C12.8396 5.03708 12.9877 4.97192 13.0503 4.9423C13.5059 4.74091 14.1267 4.4329 14.6848 4.42105C14.7531 4.42105 14.8671 4.42105 14.981 4.51582C14.998 4.53359 15.0664 4.5869 15.1632 4.75276C15.2088 4.82976 15.2657 4.95415 15.317 5.11408C14.6392 5.25032 13.8135 5.42802 12.8794 5.66495Z" fill="white"/>
<path d="M15.8352 5.27405C15.9092 5.6176 15.9776 5.96116 16.0516 6.30471C13.4091 7.35907 10.3622 8.27719 6.94508 8.81621C6.27305 8.92283 5.61241 9.01168 4.96317 9.08276C4.88344 8.7629 4.79801 8.44304 4.71828 8.1291C5.06568 8.01656 5.57255 7.85663 6.18193 7.67893C6.5692 7.56638 6.88813 7.47753 7.18427 7.40053C7.20136 7.39461 7.21844 7.38868 7.24123 7.38868C7.93034 7.20506 8.51124 7.07475 9.5022 6.82597C9.65027 6.79043 9.78695 6.75489 9.91794 6.71935L10.0546 6.68381C10.0888 6.67788 10.123 6.66604 10.1514 6.66011C11.4272 6.3284 11.8429 6.18032 12.7029 5.96116C12.7484 5.94931 12.7883 5.93746 12.8339 5.92562L12.8509 5.91969C12.8794 5.91377 12.9136 5.90192 12.9478 5.896C13.0901 5.86046 13.2496 5.82492 13.4261 5.78346C14.4399 5.5406 15.2714 5.38067 15.8352 5.27405Z" fill="#323835"/>
<path d="M6.75137 7.03322L4.76946 7.359C4.76377 7.359 4.75238 7.35307 4.75238 7.34715L4.73529 7.22868C4.73529 7.22276 4.74099 7.21092 4.74668 7.21092L6.72859 6.88513C6.73429 6.88513 6.74568 6.89106 6.74568 6.89698L6.76276 7.01545C6.76846 7.02137 6.76276 7.03322 6.75137 7.03322Z" fill="white"/>
<path d="M12.344 5.58778L10.271 6.1268C10.2653 6.1268 10.2539 6.1268 10.2539 6.11496L10.2254 6.00241C10.2254 5.99649 10.2254 5.98464 10.2368 5.98464L12.3099 5.44562C12.3155 5.44562 12.3269 5.44562 12.3269 5.45746L12.3554 5.57001C12.3554 5.57593 12.3497 5.58778 12.344 5.58778Z" fill="white"/>
<path d="M6.43819 2.87501C6.35846 3.18895 6.4325 3.57397 6.71725 3.76944C7.09883 4.03599 7.74238 3.88198 8.14104 3.66874C8.6536 3.39034 8.68777 3.04087 9.07504 2.63808C9.39967 2.30045 9.99766 1.89174 11.2107 1.70811C11.0057 1.58372 10.6355 1.4001 10.1286 1.31717C8.60804 1.08024 6.68878 1.90951 6.43819 2.87501Z" fill="white"/>
</svg>
